<?xml version="1.0" encoding="UTF-8" standalone="no"?>
<!-- Created with Inkscape (http://www.inkscape.org/) -->

<svg
   xmlns:dc="http://purl.org/dc/elements/1.1/"
   xmlns:cc="http://creativecommons.org/ns#"
   xmlns:rdf="http://www.w3.org/1999/02/22-rdf-syntax-ns#"
   xmlns:svg="http://www.w3.org/2000/svg"
   xmlns="http://www.w3.org/2000/svg"
   xmlns:sodipodi="http://sodipodi.sourceforge.net/DTD/sodipodi-0.dtd"
   xmlns:inkscape="http://www.inkscape.org/namespaces/inkscape"
   width="15mm"
   height="15mm"
   viewBox="0 0 15 15"
   version="1.1"
   id="svg1674"
   inkscape:version="0.92.5 (2060ec1f9f, 2020-04-08)">
  <defs
     id="defs1668">
    <clipPath
       clipPathUnits="userSpaceOnUse"
       id="clipPath566">
      <path
         d="M 0,2966 H 1024 V 0 H 0 Z"
         id="path564"
         inkscape:connector-curvature="0" />
    </clipPath>
  </defs>
  <sodipodi:namedview
     id="base"
     pagecolor="#ffffff"
     bordercolor="#666666"
     borderopacity="1.0"
     inkscape:pageopacity="0.0"
     inkscape:pageshadow="2"
     inkscape:zoom="1.4"
     inkscape:cx="45.438827"
     inkscape:cy="168.05298"
     inkscape:document-units="mm"
     inkscape:current-layer="layer1"
     showgrid="false"
     inkscape:window-width="1366"
     inkscape:window-height="703"
     inkscape:window-x="0"
     inkscape:window-y="0"
     inkscape:window-maximized="1" />
  <metadata
     id="metadata1671">
    <rdf:RDF>
      <cc:Work
         rdf:about="">
        <dc:format>image/svg+xml</dc:format>
        <dc:type
           rdf:resource="http://purl.org/dc/dcmitype/StillImage" />
        <dc:title></dc:title>
      </cc:Work>
    </rdf:RDF>
  </metadata>
  <g
     inkscape:label="Capa 1"
     inkscape:groupmode="layer"
     id="layer1"
     transform="translate(0,-282)">
    <g
       transform="matrix(0.35277777,0,0,-0.35277777,-170.09259,363.47872)"
       id="g560">
      <g
         id="g562"
         clip-path="url(#clipPath566)">
        <g
           id="g568"
           transform="translate(516.6094,202.5312)">
          <path
             d="m 0,0 c 0,-1.165 -0.702,-1.88 -1.88,-1.88 -7.372,-0.006 -14.752,-0.006 -22.137,0 -1.203,0 -1.886,0.709 -1.886,1.911 v 13.993 c 0,1.297 0.658,1.962 1.968,1.968 h 21.992 c 1.012,0 1.715,-0.5 1.905,-1.347 C -0.006,14.48 0,14.303 0,14.126 Z M -12.43,28.112 C -24.112,28.144 -33.416,18.967 -33.447,7.36 -33.485,-4.101 -24.188,-13.404 -12.683,-13.43 -1.329,-13.461 8.031,-4.171 8.069,7.158 8.107,18.657 -1.102,28.074 -12.43,28.112"
             style="fill:#de3626;fill-opacity:1;fill-rule:nonzero;stroke:none"
             id="path570"
             inkscape:connector-curvature="0" />
        </g>
        <g
           id="g572"
           transform="translate(513.0215,216.7959)">
          <path
             d="M 0,0 -9.367,-8.486 -18.733,0 Z"
             style="fill:#de3626;fill-opacity:1;fill-rule:nonzero;stroke:none"
             id="path574"
             inkscape:connector-curvature="0" />
        </g>
        <g
           id="g576"
           transform="translate(513.458,202.4043)">
          <path
             d="m 0,0 h -19.334 l 6.265,6.14 3.266,-2.95 3.638,3.291 z"
             style="fill:#de3626;fill-opacity:1;fill-rule:nonzero;stroke:none"
             id="path578"
             inkscape:connector-curvature="0" />
        </g>
        <g
           id="g580"
           transform="translate(498.7881,209.999)">
          <path
             d="M 0,0 -6.278,-6.146 V 5.684 Z"
             style="fill:#de3626;fill-opacity:1;fill-rule:nonzero;stroke:none"
             id="path582"
             inkscape:connector-curvature="0" />
        </g>
        <g
           id="g584"
           transform="translate(514.7998,215.6826)">
          <path
             d="m 0,0 v -11.759 l -6.006,6.316 z"
             style="fill:#de3626;fill-opacity:1;fill-rule:nonzero;stroke:none"
             id="path586"
             inkscape:connector-curvature="0" />
        </g>
        <g
           id="g588"
           transform="translate(289.9966,213.7402)">
          <path
             d="m 0,0 c 0.006,-0.127 0.297,-0.342 0.468,-0.354 0.728,-0.039 1.456,-0.02 2.19,-0.02 H 3.367 C 3.278,-1.418 3.202,-2.393 3.114,-3.418 H 0.12 c -0.316,-3.557 -0.05,-7.069 -0.158,-10.588 h -4.057 v 0.715 c 0,3.07 -0.012,6.14 0.013,9.209 0.006,0.519 -0.165,0.683 -0.652,0.651 -0.417,-0.025 -0.835,-0.006 -1.297,-0.006 v 3.05 h 2.025 c 0,0.829 -0.006,1.608 0,2.38 0.006,0.475 -0.019,0.962 0.063,1.424 0.317,1.86 1.393,2.829 3.557,2.968 C 0.981,6.474 2.367,6.277 3.816,6.208 3.614,5.012 3.437,3.98 3.278,3.037 2.386,3.037 1.626,3.075 0.874,3.024 0.38,2.987 0.032,2.695 0.019,2.133 0.006,1.424 -0.032,0.708 0,0 m -1.038,16.612 c -10.43,-0.076 -20.29,-7.633 -20.606,-20.277 -0.278,-11.088 9.499,-20.789 20.505,-20.682 11.202,0.108 20.524,9.259 20.441,20.347 -0.088,11.461 -8.537,20.372 -20.34,20.612"
             style="fill:#de3626;fill-opacity:1;fill-rule:nonzero;stroke:none"
             id="path590"
             inkscape:connector-curvature="0" />
        </g>
        <g
           id="g592"
           transform="translate(89.4502,204.2021)">
          <path
             d="m 0,0 c -0.019,-3.278 -1.253,-4.563 -4.557,-4.651 -1.19,-0.033 -2.38,-0.007 -3.569,-0.007 v -0.013 c -2.759,0 -5.525,-0.076 -8.278,0.045 -0.969,0.044 -1.981,0.437 -2.848,0.911 -1.329,0.728 -1.494,2.17 -1.519,3.486 -0.069,4.02 -0.082,8.044 -0.019,12.063 0.032,2.19 1.361,3.887 3.475,4.089 4.664,0.436 9.36,0.683 13.986,-0.348 2.778,-0.62 3.481,-1.772 3.443,-4.994 C 0.076,7.057 0.025,3.525 0,0 m -9.898,26.207 c -11.797,0.025 -20.967,-8.816 -21.138,-20.1 -0.184,-12.669 9.493,-20.878 20.803,-20.973 11.29,-0.02 20.485,8.949 20.511,19.986 0.025,11.93 -8.709,21.056 -20.176,21.087"
             style="fill:#de3626;fill-opacity:1;fill-rule:nonzero;stroke:none"
             id="path594"
             inkscape:connector-curvature="0" />
        </g>
        <g
           id="g596"
           transform="translate(87.1592,202.9551)">
          <path
             d="m 0,0 c 0,-0.627 -0.348,-0.905 -0.968,-1.006 -4.696,-0.779 -9.392,-0.791 -14.101,-0.038 -0.791,0.133 -1.076,0.601 -1.101,1.272 -0.063,2.057 -0.088,4.12 -0.12,6.177 -0.013,0.835 0,1.67 0,2.632 h 2.956 c -0.57,-2.088 -0.722,-4.126 0.949,-5.765 1.291,-1.272 2.911,-1.753 4.708,-1.683 1.848,0.076 3.411,0.722 4.474,2.304 0.678,1.012 0.709,1.518 0.519,5.131 h 2.69 C 0.006,5.987 0.013,2.993 0,0"
             style="fill:#de3626;fill-opacity:1;fill-rule:nonzero;stroke:none"
             id="path598"
             inkscape:connector-curvature="0" />
        </g>
        <g
           id="g600"
           transform="translate(82.729,209.9043)">
          <path
             d="m 0,0 c -0.013,-2.082 -1.646,-3.627 -3.816,-3.607 -2.076,0.025 -3.494,1.493 -3.506,3.638 -0.007,2.076 1.55,3.589 3.689,3.576 C -1.475,3.601 0.013,2.12 0,0"
             style="fill:#de3626;fill-opacity:1;fill-rule:nonzero;stroke:none"
             id="path602"
             inkscape:connector-curvature="0" />
        </g>
        <path
           d="m 86.875,214.41 h -3.329 v 3.38 h 3.329 z"
           style="fill:#de3626;fill-opacity:1;fill-rule:nonzero;stroke:none"
           id="path604"
           inkscape:connector-curvature="0" />
      </g>
    </g>
  </g>
</svg>
